…
## 10/22/21 work

I've created an initial function `discoverData()` that generates a table for
source types. For example, in AnnotationHub there is:

```{r}
library(AnnotationHub)
ah = AnnotationHub()
> discoverData(ah)
# A tibble: 31 × 2
   name         value
   <chr>        <table>
 1 FASTA        14061
 2 BED          13018
 3 BigWig       12384
 4 GTF          10354
 5 ensembl       2719
 6 UCSC track    2217
 7 NCBI/UniProt  1725
 8 Chain         1115
 9 GFF            933
10 CSV            678
# … with 21 more rows
>
```

What I've discovered is there is also rdataclass for files. In some cases these
match the sourcetype, but in others they are different. The rdataclass is what
determines how the resource is loaded in R. So this might be of more interest to
us. This information look like this:

```{r}
> enframe(table(mcols(ah)$rdataclass)) %>% arrange(desc(value))
# A tibble: 29 × 2
   name          value
   <chr>         <table>
 1 GRanges       26599
 2 TwoBitFile    14056
 3 BigWigFile    10247
 4 EnsDb          2719
 5 Rle            2185
 6 OrgDb          1744
 7 ChainFile      1115
 8 TxDb            480
 9 SQLiteFile      421
10 Inparanoid8Db   268
# … with 19 more rows
…
